<?xml version="1.0" encoding="UTF-8"?>
<svg width="14px" height="14px" viewBox="0 0 14 14" version="1.1" xmlns="http://www.w3.org/2000/svg" xmlns:xlink="http://www.w3.org/1999/xlink">
    <!-- Generator: Sketch 49.2 (51160) - http://www.bohemiancoding.com/sketch -->
    <title>feedback (1) copy</title>
    <desc>Created with Sketch.</desc>
    <defs></defs>
    <g id="Page-1" stroke="none" stroke-width="1" fill="none" fill-rule="evenodd">
        <g id="feedback-(1)-copy" fill="#C33332" fill-rule="nonzero">
            <path d="M3.20832422,3.82268511 L9.625,3.82268511 C9.78621875,3.82268511 9.91667578,3.68057021 9.91667578,3.50494468 C9.91667578,3.32931915 9.78621875,3.18720426 9.625,3.18720426 L3.20832422,3.18720426 C3.04710547,3.18720426 2.91664844,3.32931915 2.91664844,3.50494468 C2.91667578,3.6806 3.04713281,3.82268511 3.20832422,3.82268511 Z" id="Shape"></path>
            <path d="M6.70832422,7 L3.20832422,7 C3.04710547,7 2.91664844,7.14211489 2.91664844,7.31774043 C2.91664844,7.49336596 3.04710547,7.63548085 3.20832422,7.63548085 L6.70832422,7.63548085 C6.86954297,7.63548085 7,7.49336596 7,7.31774043 C7,7.14211489 6.86954297,7 6.70832422,7 Z" id="Shape"></path>
            <path d="M12.8834727,1.28085106 C12.8665742,1.28085106 12.8501953,1.28546809 12.8333516,1.28633191 L12.8333516,1.28085106 C12.8333516,0.57992766 12.3098281,0.00991914894 11.6666758,0.00991914894 L1.16667578,0.00991914894 C0.523523438,0.00991914894 0,0.57992766 0,1.28085106 L0,13.6723404 C0,13.8008128 0.071203125,13.916834 0.180003906,13.9658638 C0.21590625,13.9823064 0.254050781,13.9900809 0.291648438,13.9900809 C0.367417969,13.9900809 0.442039063,13.9578213 0.497875,13.8969957 L3.32910156,10.812766 L11.6666758,10.812766 C12.3098281,10.812766 12.8333516,10.2427872 12.8333516,9.54183404 L12.8333516,4.27181702 L13.6730234,3.35725957 C13.6730234,3.35725957 13.6730234,3.35725957 13.6730234,3.3569617 C13.8809453,3.13045957 14,2.81706809 14,2.49715319 C14,1.82634468 13.4992813,1.28085106 12.8834727,1.28085106 Z M12.25,9.54183404 C12.25,9.89213191 11.9885117,10.1772851 11.6666758,10.1772851 L3.20832422,10.1772851 C3.13085937,10.1772851 3.05678516,10.2107957 3.00209766,10.2703702 L0.583324219,12.9053191 L0.583324219,1.28085106 C0.583324219,0.930553191 0.8448125,0.6454 1.16664844,0.6454 L11.6666484,0.6454 C11.9885391,0.6454 12.25,0.930553191 12.25,1.28085106 L12.25,1.49788085 C12.1946289,1.53934468 12.1416641,1.58494894 12.0939219,1.63704681 L8.92040625,5.09361702 L3.20832422,5.09361702 C3.04710547,5.09361702 2.91664844,5.23573191 2.91664844,5.41135745 C2.91664844,5.58698298 3.04710547,5.72909787 3.20832422,5.72909787 L8.45244531,5.72909787 L8.17236328,7.25539574 C8.15300391,7.35965106 8.18319141,7.46733191 8.252125,7.54239574 C8.30738672,7.60259574 8.38200781,7.63548085 8.45835156,7.63548085 C8.47716406,7.63548085 8.49652344,7.63330638 8.51530859,7.62928511 L9.97308594,7.31154468 C10.030043,7.2991234 10.0818867,7.2690383 10.1223281,7.22465532 L12.25,4.90720851 L12.25,9.54183404 Z M9.77254687,6.7074 L8.83033594,6.91281277 L9.01889844,5.88515319 L11.6665391,3.00091489 L12.4208711,3.82265532 L9.77254687,6.7074 Z M13.2605703,2.90797872 L12.8333242,3.37340426 L12.0789375,2.55160426 L12.5063203,2.08602979 C12.6054414,1.97834894 12.7427344,1.91630213 12.8834453,1.91630213 C13.1773906,1.91630213 13.4166484,2.17694043 13.4166484,2.49715319 C13.4166758,2.64981277 13.3596914,2.79970213 13.2605703,2.90797872 Z" id="Shape"></path>
        </g>
    </g>
</svg>