<?xml version="1.0" encoding="UTF-8"?>
<svg width="14px" height="14px" viewBox="0 0 14 14" version="1.1" xmlns="http://www.w3.org/2000/svg" xmlns:xlink="http://www.w3.org/1999/xlink">
    <!-- Generator: Sketch 49.2 (51160) - http://www.bohemiancoding.com/sketch -->
    <title>open-wrench-tool-silhouette (1) copy</title>
    <desc>Created with Sketch.</desc>
    <defs></defs>
    <g id="Page-1" stroke="none" stroke-width="1" fill="none" fill-rule="evenodd">
        <g id="open-wrench-tool-silhouette-(1)-copy" fill="#C33332" fill-rule="nonzero">
            <path d="M6.13629851,5.40894468 L0.332477612,11.2003872 C0.116597015,11.4157787 0.00859701493,11.6737957 0.00859701493,11.9742894 C0.00859701493,12.2805021 0.116567164,12.5355404 0.332477612,12.7398213 L1.2358209,13.6583106 C1.45749254,13.8681021 1.716,13.9728936 2.01137313,13.9728936 C2.31253731,13.9728936 2.56820896,13.8681021 2.77844776,13.6583106 L8.59065672,7.85828936 C8.03402985,7.63708936 7.54122388,7.31252766 7.11208955,6.88451489 C6.68319403,6.45641277 6.35797015,5.96456596 6.13629851,5.40894468 Z M2.94041791,11.8127234 C2.83232836,11.9203745 2.70450746,11.9743191 2.55683582,11.9743191 C2.40910448,11.9743191 2.28128358,11.9203745 2.17334328,11.8127234 C2.06537313,11.704983 2.01137313,11.5774638 2.01137313,11.4300468 C2.01137313,11.2827787 2.06537313,11.1550511 2.17334328,11.0471617 C2.28128358,10.9396298 2.40901493,10.8856851 2.55683582,10.8856851 C2.70459701,10.8856851 2.83244776,10.9396298 2.94041791,11.0471617 C3.04832836,11.1550213 3.10232836,11.2827489 3.10232836,11.4300468 C3.10232836,11.577434 3.04832836,11.704983 2.94041791,11.8127234 Z" id="Shape"></path>
            <path d="M13.9217612,3.9461234 C13.8734627,3.88934894 13.8066567,3.86105106 13.7215522,3.86105106 C13.6704776,3.86105106 13.4702388,3.9617617 13.1206866,4.16303404 C12.7713134,4.36424681 12.3862687,4.59381702 11.9659104,4.85183404 C11.5453433,5.10988085 11.3209254,5.24734894 11.292597,5.26438723 L9.64764179,4.35438723 L9.64764179,2.44937447 L12.1446866,1.01202128 C12.2355821,0.949676596 12.2810448,0.870293617 12.2810448,0.773902128 C12.2810448,0.677570213 12.2355821,0.598217021 12.1446866,0.535842553 C11.894597,0.365697872 11.5891642,0.233859574 11.2285672,0.14032766 C10.8677612,0.0467957447 10.5225075,0 10.1930448,0 C9.14197015,0 8.24283582,0.372876596 7.49579104,1.11839149 C6.74847761,1.86384681 6.37507463,2.76112766 6.37507463,3.80996596 C6.37507463,4.85883404 6.74868657,5.75608511 7.49579104,6.5016 C8.24283582,7.24705532 9.14197015,7.61993191 10.1930448,7.61993191 C10.9942388,7.61993191 11.7286269,7.38303404 12.396209,6.90974468 C13.0636716,6.43633617 13.5311642,5.81977021 13.7981791,5.06004681 C13.9287463,4.68022979 13.9940896,4.3796766 13.9940896,4.15862553 C13.9942985,4.07379149 13.9699701,4.00289787 13.9217612,3.9461234 Z" id="Shape"></path>
        </g>
    </g>
</svg>